{
	"autogen": "linux/(loong64|ppc64le|s390x|386|arm$|riscv64)",
	"autotag": "linux/amd64",
	"autoupdate": "linux/(loong64|ppc64le|s390x|386|arm$|riscv64)",
	"download": [
		{"re": "linux/(loong64|ppc64le|s390x|386|arm$|riscv64)", 
			"files": ["http://prdownloads.sourceforge.net/tcl/tcl-core9.0.1-src.tar.gz"]}
	],
	"test": "linux/(loong64|ppc64le|s390x|386|arm$|riscv64)"
}
